R for Data Science
…
Nevertheless, it should be quite evident that when the data set is big, this is not the best way to create a data set. Before exploring how to import data sets into R, however, it may be worth exploring a few data sets.

Examples of data sets

R contains several examples of data sets, some of which particularly interesting because they are data sets of historical value, like Edgar Anderson’s Iris data set. To see which data sets are included in R, we can use the command data(). This opens a new tab in RStudio showing the list of data sets included in base R.

Any of these data sets can be called simply typing their name on the console (or running the corresponding code in the R script). However, data sets stored in R cannot be changed, and in order to have the flexibility to make changes, we may wish to save a copy in the memory. However, since the base R saves data sets as data.frame type, we may wish to transform them into a tibble, with the command as_tibble(), like so:

iris <- as_tibble(iris)
iris

# A tibble: 150 × 5
   Sepal.Length Sepal.Width Petal.Length Petal.Width Species
          <dbl>       <dbl>        <dbl>       <dbl> <fct>  
 1          5.1         3.5          1.4         0.2 setosa 
 2          4.9         3            1.4         0.2 setosa 
 3          4.7         3.2          1.3         0.2 setosa 
 4          4.6         3.1          1.5         0.2 setosa 
 5          5           3.6          1.4         0.2 setosa 
 6          5.4         3.9          1.7         0.4 setosa 
 7          4.6         3.4          1.4         0.3 setosa 
 8          5           3.4          1.5         0.2 setosa 
 9          4.4         2.9          1.4         0.2 setosa 
10          4.9         3.1          1.5         0.1 setosa 
# ℹ 140 more rows

Note that the data sets contains 150 rows, but one of the features of a tibble is that it shows only the first 10 rows. If we wish to see more (or less) rows, we can pass the tibble to the function print() and state the numbers of rows to print. For instance, to see the first three rows, we can use

print(iris, n = 3)

# A tibble: 150 × 5
  Sepal.Length Sepal.Width Petal.Length Petal.Width Species
         <dbl>       <dbl>        <dbl>       <dbl> <fct>  
1          5.1         3.5          1.4         0.2 setosa 
2          4.9         3            1.4         0.2 setosa 
3          4.7         3.2          1.3         0.2 setosa 
# ℹ 147 more rows
…
Nicely, summary() returns a summary of each variable in the tibble, and each summary depends on the type of the variable.

Another nice data set stored in R is airquality, which shows the Daily air quality measurements in New York, May to September 1973. To store it as a tibble, let’s run the following

airquality <- as_tibble(airquality)
airquality

# A tibble: 153 × 6
   Ozone Solar.R  Wind  Temp Month   Day
   <int>   <int> <dbl> <int> <int> <int>
 1    41     190   7.4    67     5     1
 2    36     118   8      72     5     2
 3    12     149  12.6    74     5     3
 4    18     313  11.5    62     5     4
 5    NA      NA  14.3    56     5     5
 6    28      NA  14.9    66     5     6
 7    23     299   8.6    65     5     7
 8    19      99  13.8    59     5     8
 9     8      19  20.1    61     5     9
10    NA     194   8.6    69     5    10
# ℹ 143 more rows

Here we can notice a feature that we have not seen before: the presence of NA’s into the data set. NA is a special type of logical value which stands for “Not Available”. This represents a missing value. It is often the case that a data set is incomplete, i.e. that some of the data is not recorded, or it is lost. If these situations are saved as NA, R can keep track of the missing value and handle it accordingly. There are several functions in R that help dealing with missing values.

Another example of data set comes from the package ggplot2 (one of the tidyverse core packages) and it is called mpg; it contains the Fuel economy data from 1999 to 2008 for 38 popular models of cars. This is a data set stored into the tidyverse so it is already a tibble. To see it we can just call it, like so:

mpg

# A tibble: 234 × 11
   manufacturer model      displ  year   cyl trans drv     cty   hwy fl    class
   <chr>        <chr>      <dbl> <int> <int> <chr> <chr> <int> <int> <chr> <chr>
 1 audi         a4           1.8  1999     4 auto… f        18    29 p     comp…
 2 audi         a4           1.8  1999     4 manu… f        21    29 p     comp…
 3 audi         a4           2    2008     4 manu… f        20    31 p     comp…
 4 audi         a4           2    2008     4 auto… f        21    30 p     comp…
 5 audi         a4           2.8  1999     6 auto… f        16    26 p     comp…
 6 audi         a4           2.8  1999     6 manu… f        18    26 p     comp…
 7 audi         a4           3.1  2008     6 auto… f        18    27 p     comp…
 8 audi         a4 quattro   1.8  1999     4 manu… 4        18    26 p     comp…
 9 audi         a4 quattro   1.8  1999     4 auto… 4        16    25 p     comp…
10 audi         a4 quattro   2    2008     4 manu… 4        20    28 p     comp…
# ℹ 224 more rows
…
Usually data are stored either in excel files or in CSV files (comma separated variable). Let’s start with the latter and suppose we want to store in R the content of the sheep data set on the course repository. This contains the height (in cm) and the weight (in kg) of a sample of sheep. To do so, providing the tidyverse is loaded, it suffices to run the command

sheep <- read_csv("https://raw.githubusercontent.com/acarpignani/R4DS/main/datasets/sheep.csv")

Rows: 100 Columns: 2
── Column specification ────────────────────────────────────────────────────────
Delimiter: ","
dbl (2): weight, height

ℹ Use `spec()` to retrieve the full column specification for this data.
ℹ Specify the column types or set `show_col_types = FALSE` to quiet this message.

sheep

# A tibble: 100 × 2
   weight height
    <dbl>  <dbl>
 1   75.2   56.3
 2  102.    83.6
 3   74.5   56.6
 4   81.4   55.6
 5   83.2   73.6
 6   80.8   56.2
 7   81.7   65.9
 8   90.8   70.4
 9  103.    66.3
10  105.    74.0
# ℹ 90 more rows
…
