R for Data Science
…
The output is always a new data frame

Since each verb does one thing, solving complex problems will usually require to combine multiple verbs. We can do so using the pipe, |>. In brief, the pipe takes the thing on its left and passes it along to the function on its right so that x |> f(y) is equivalent to f(x,y) and, inductively, x |> f(y) |> g(z) is equivalent to g(f(x, y), z). The easiest way to pronounce the pipe is ‘then’.

The “flights” data set

To explore the basic dplyr verbs, we are going to use the flights data set in the package nycflights13. This data set contains all 336,776 flights departed from New York city in 2013. The data comes from the US Bureau of Transportation Statistics and is documented in help(flights).

To install the package nyflights13 it suffices to run the command install.packages("nycflights13") from the console. Once the package is loaded, we can just run flights to see its content, like so:

library(nycflights13)
flights

# A tibble: 336,776 × 19
    year month   day dep_time sched_dep_time dep_delay arr_time sched_arr_time
   <int> <int> <int>    <int>          <int>     <dbl>    <int>          <int>
 1  2013     1     1      517            515         2      830            819
 2  2013     1     1      533            529         4      850            830
 3  2013     1     1      542            540         2      923            850
 4  2013     1     1      544            545        -1     1004           1022
 5  2013     1     1      554            600        -6      812            837
 6  2013     1     1      554            558        -4      740            728
 7  2013     1     1      555            600        -5      913            854
 8  2013     1     1      557            600        -3      709            723
 9  2013     1     1      557            600        -3      838            846
10  2013     1     1      558            600        -2      753            745
# ℹ 336,766 more rows
# ℹ 11 more variables: arr_delay <dbl>, carrier <chr>, flight <int>,
#   tailnum <chr>, origin <chr>, dest <chr>, air_time <dbl>, distance <dbl>,
#   hour <dbl>, minute <dbl>, time_hour <dttm>
…
In both views, the variables names are followed by abbreviations that tell you the type of each variable. For example <int> is short for integer, <dbl> is short for double (aka the floating point real numbers), <chr> is short for character (aka strings), and <dttm> is short for data-time.

The main dplyr functions

Filter

The simplest verb of all is filter() which allows you to keep rows based on the values of columns. The first argument of the function (as per general rule) is the data frame, which we can pass using the pipe. The second and all subsequent arguments of the functions are the conditions that must be true in order to keep the row. For example, if we wish to find all flights in the flights data set that departed from New York in December, we could use the following:

flights |> 
    filter(month == 12)

# A tibble: 28,135 × 19
    year month   day dep_time sched_dep_time dep_delay arr_time sched_arr_time
   <int> <int> <int>    <int>          <int>     <dbl>    <int>          <int>
 1  2013    12     1       13           2359        14      446            445
 2  2013    12     1       17           2359        18      443            437
 3  2013    12     1      453            500        -7      636            651
 4  2013    12     1      520            515         5      749            808
 5  2013    12     1      536            540        -4      845            850
 6  2013    12     1      540            550       -10     1005           1027
 7  2013    12     1      541            545        -4      734            755
 8  2013    12     1      546            545         1      826            835
 9  2013    12     1      549            600       -11      648            659
10  2013    12     1      550            600       -10      825            854
# ℹ 28,125 more rows
# ℹ 11 more variables: arr_delay <dbl>, carrier <chr>, flight <int>,
#   tailnum <chr>, origin <chr>, dest <chr>, air_time <dbl>, distance <dbl>,
#   hour <dbl>, minute <dbl>, time_hour <dttm>

We can add more than one condition at once. For example, suppose we wish to find all flights that departed from New York in December with more than 120 minutes of delay. We could then use the following

flights |> 
    filter(month == 12, dep_delay > 120)

# A tibble: 874 × 19
    year month   day dep_time sched_dep_time dep_delay arr_time sched_arr_time
   <int> <int> <int>    <int>          <int>     <dbl>    <int>          <int>
 1  2013    12     1      657           1930       687     1010           2249
 2  2013    12     1      941            710       151     1105            855
 3  2013    12     1     1142            815       207     1305            952
 4  2013    12     1     1504           1056       248     1628           1230
 5  2013    12     1     1553           1315       158     1856           1630
 6  2013    12     1     1936           1529       247     2105           1657
 7  2013    12     1     2017           1455       322     2146           1609
 8  2013    12     1     2251           2048       123      102           2319
 9  2013    12     1     2301           1955       186       19           2146
10  2013    12     2      841            601       160     1037            811
# ℹ 864 more rows
# ℹ 11 more variables: arr_delay <dbl>, carrier <chr>, flight <int>,
#   tailnum <chr>, origin <chr>, dest <chr>, air_time <dbl>, distance <dbl>,
#   hour <dbl>, minute <dbl>, time_hour <dttm>

From a logical point of view, , acts like an “and”. However, we can also combine conditions using the logical operations & (and), | (or) and ! (not) in a single argument. Suppose now we wish to find all flights that departed from New York on the 16 December. We can then use the following:

flights |> 
    filter(month == 12 & day == 16)

# A tibble: 964 × 19
    year month   day dep_time sched_dep_time dep_delay arr_time sched_arr_time
   <int> <int> <int>    <int>          <int>     <dbl>    <int>          <int>
 1  2013    12    16        1           2359         2      447            437
 2  2013    12    16        2           2250        72      111           2356
 3  2013    12    16       12           2359        13      453            440
 4  2013    12    16       20           2255        85      119           2356
 5  2013    12    16       24           2359        25      517            445
 6  2013    12    16      458            500        -2      641            651
 7  2013    12    16      519            515         4      800            814
 8  2013    12    16      545            540         5      953            850
 9  2013    12    16      549            545         4      832            832
10  2013    12    16      550            550         0     1045           1027
# ℹ 954 more rows
# ℹ 11 more variables: arr_delay <dbl>, carrier <chr>, flight <int>,
#   tailnum <chr>, origin <chr>, dest <chr>, air_time <dbl>, distance <dbl>,
#   hour <dbl>, minute <dbl>, time_hour <dttm>

This is clearly the same as

flights |> 
    filter(month == 12, day == 16)

# A tibble: 964 × 19
    year month   day dep_time sched_dep_time dep_delay arr_time sched_arr_time
   <int> <int> <int>    <int>          <int>     <dbl>    <int>          <int>
 1  2013    12    16        1           2359         2      447            437
 2  2013    12    16        2           2250        72      111           2356
 3  2013    12    16       12           2359        13      453            440
 4  2013    12    16       20           2255        85      119           2356
 5  2013    12    16       24           2359        25      517            445
 6  2013    12    16      458            500        -2      641            651
 7  2013    12    16      519            515         4      800            814
 8  2013    12    16      545            540         5      953            850
 9  2013    12    16      549            545         4      832            832
10  2013    12    16      550            550         0     1045           1027
# ℹ 954 more rows
# ℹ 11 more variables: arr_delay <dbl>, carrier <chr>, flight <int>,
#   tailnum <chr>, origin <chr>, dest <chr>, air_time <dbl>, distance <dbl>,
#   hour <dbl>, minute <dbl>, time_hour <dttm>

Another useful one is %in% which allows us to request that the variable lies in a specific vector. For example, if we wish to know the flights that departed from New York on the 25 December, 26 December or the 31 December, we could use the following:

flights |> 
    filter(month == 12, day %in% c(25, 26, 31))

# A tibble: 2,431 × 19
    year month   day dep_time sched_dep_time dep_delay arr_time sched_arr_time
   <int> <int> <int>    <int>          <int>     <dbl>    <int>          <int>
 1  2013    12    25      456            500        -4      649            651
 2  2013    12    25      524            515         9      805            814
 3  2013    12    25      542            540         2      832            850
 4  2013    12    25      546            550        -4     1022           1027
 5  2013    12    25      556            600        -4      730            745
 6  2013    12    25      557            600        -3      743            752
 7  2013    12    25      557            600        -3      818            831
 8  2013    12    25      559            600        -1      855            856
 9  2013    12    25      559            600        -1      849            855
10  2013    12    25      600            600         0      850            846
# ℹ 2,421 more rows
# ℹ 11 more variables: arr_delay <dbl>, carrier <chr>, flight <int>,
#   tailnum <chr>, origin <chr>, dest <chr>, air_time <dbl>, distance <dbl>,
#   hour <dbl>, minute <dbl>, time_hour <dttm>

Arrange

arrange() changes the order of the rows based on the value of a column. Its first argument (as per general rule) is a data frame, and its second argument is a set of column names (or more complicated expressions) to order by. If more than one column is provided, the subsequent columns will be used to break ties in the value of the preceding columns.

For example, let’s rearrange the data set to show the flights sorted by departure time, which is spread over four columns: year, month, day and dep_time.

flights |> 
    arrange(year, month, day, dep_time)

# A tibble: 336,776 × 19
    year month   day dep_time sched_dep_time dep_delay arr_time sched_arr_time
   <int> <int> <int>    <int>          <int>     <dbl>    <int>          <int>
 1  2013     1     1      517            515         2      830            819
 2  2013     1     1      533            529         4      850            830
 3  2013     1     1      542            540         2      923            850
 4  2013     1     1      544            545        -1     1004           1022
 5  2013     1     1      554            600        -6      812            837
 6  2013     1     1      554            558        -4      740            728
 7  2013     1     1      555            600        -5      913            854
 8  2013     1     1      557            600        -3      709            723
 9  2013     1     1      557            600        -3      838            846
10  2013     1     1      558            600        -2      753            745
# ℹ 336,766 more rows
# ℹ 11 more variables: arr_delay <dbl>, carrier <chr>, flight <int>,
#   tailnum <chr>, origin <chr>, dest <chr>, air_time <dbl>, distance <dbl>,
#   hour <dbl>, minute <dbl>, time_hour <dttm>

We can also use the function desc() on a column inside arrange() to reorder the data frame based on that column in descending order. For example, this code orders flights from most to least delayed:

flights |> 
    arrange(desc(dep_delay))

# A tibble: 336,776 × 19
    year month   day dep_time sched_dep_time dep_delay arr_time sched_arr_time
   <int> <int> <int>    <int>          <int>     <dbl>    <int>          <int>
 1  2013     1     9      641            900      1301     1242           1530
 2  2013     6    15     1432           1935      1137     1607           2120
 3  2013     1    10     1121           1635      1126     1239           1810
 4  2013     9    20     1139           1845      1014     1457           2210
 5  2013     7    22      845           1600      1005     1044           1815
 6  2013     4    10     1100           1900       960     1342           2211
 7  2013     3    17     2321            810       911      135           1020
 8  2013     6    27      959           1900       899     1236           2226
 9  2013     7    22     2257            759       898      121           1026
10  2013    12     5      756           1700       896     1058           2020
# ℹ 336,766 more rows
# ℹ 11 more variables: arr_delay <dbl>, carrier <chr>, flight <int>,
#   tailnum <chr>, origin <chr>, dest <chr>, air_time <dbl>, distance <dbl>,
#   hour <dbl>, minute <dbl>, time_hour <dttm>
