R for Data Science
…
Usually data are stored either in excel files or in CSV files (comma separated variable). Let’s start with the latter and suppose we want to store in R the content of the sheep data set on the course’s repository. This contains the height (in cm) and the weight (in kg) of a sample of sheep. To do so, providing the tidyverse is loaded, it suffices to run the command

sheep <- read_csv("https://raw.githubusercontent.com/acarpignani/R4DS/main/datasets/sheep.csv")

Rows: 100 Columns: 2
── Column specification ────────────────────────────────────────────────────────
Delimiter: ","
dbl (2): weight, height

ℹ Use `spec()` to retrieve the full column specification for this data.
ℹ Specify the column types or set `show_col_types = FALSE` to quiet this message.

sheep

# A tibble: 100 × 2
   weight height
    <dbl>  <dbl>
 1   75.2   56.3
 2  102.    83.6
 3   74.5   56.6
 4   81.4   55.6
 5   83.2   73.6
 6   80.8   56.2
 7   81.7   65.9
 8   90.8   70.4
 9  103.    66.3
10  105.    74.0
# ℹ 90 more rows
…
