R for Data Science - 12 Reshaping data sets
…
There are three key arguments:

cols specifies which columns need to be pivoted, i.e. which columns are not variables. This argument uses the same syntax as select() so here any function available for select() can be used as well.

names_to names the variable stored in the column names, we named that variable measurement.

values_to names the variable stored in the cell values, we named that variable value.

To see a more complex examble, tidyr contains a few data sets to practice lengthening and widening. One of them is called billboard and contains the song rankings for Billboard top 100 in the year 2000. Let’s have a look at it.

billboard

# A tibble: 317 × 79
   artist     track date.entered   wk1   wk2   wk3   wk4   wk5   wk6   wk7   wk8
   <chr>      <chr> <date>       <dbl> <dbl> <dbl> <dbl> <dbl> <dbl> <dbl> <dbl>
 1 2 Pac      Baby… 2000-02-26      87    82    72    77    87    94    99    NA
 2 2Ge+her    The … 2000-09-02      91    87    92    NA    NA    NA    NA    NA
 3 3 Doors D… Kryp… 2000-04-08      81    70    68    67    66    57    54    53
 4 3 Doors D… Loser 2000-10-21      76    76    72    69    67    65    55    59
 5 504 Boyz   Wobb… 2000-04-15      57    34    25    17    17    31    36    49
 6 98^0       Give… 2000-08-19      51    39    34    26    26    19     2     2
 7 A*Teens    Danc… 2000-07-08      97    97    96    95   100    NA    NA    NA
 8 Aaliyah    I Do… 2000-01-29      84    62    51    41    38    35    35    38
 9 Aaliyah    Try … 2000-03-18      59    53    38    28    21    18    16    14
10 Adams, Yo… Open… 2000-08-26      76    76    74    69    68    67    61    58
# ℹ 307 more rows
# ℹ 68 more variables: wk9 <dbl>, wk10 <dbl>, wk11 <dbl>, wk12 <dbl>,
#   wk13 <dbl>, wk14 <dbl>, wk15 <dbl>, wk16 <dbl>, wk17 <dbl>, wk18 <dbl>,
#   wk19 <dbl>, wk20 <dbl>, wk21 <dbl>, wk22 <dbl>, wk23 <dbl>, wk24 <dbl>,
#   wk25 <dbl>, wk26 <dbl>, wk27 <dbl>, wk28 <dbl>, wk29 <dbl>, wk30 <dbl>,
#   wk31 <dbl>, wk32 <dbl>, wk33 <dbl>, wk34 <dbl>, wk35 <dbl>, wk36 <dbl>,
#   wk37 <dbl>, wk38 <dbl>, wk39 <dbl>, wk40 <dbl>, wk41 <dbl>, wk42 <dbl>, …

In this data set, each observation is a song. The first three columns (artist, track and date.entered) are variables that describe the song. Then we have 76 columns (wk1-wk76) that describe the rank of the song in each week. Here, the column names are one variable (the week) and the cell values are another (the rank). The data set is therefore not in a tidy format. To make it tidy, we need to use pivot_longer() to move the week number in a column and the ranking for that week in a different column, like so:

billboard |> 
    pivot_longer(
        cols = starts_with("wk"),
        names_to = "week",
        values_to = "rank"
    )

# A tibble: 24,092 × 5
   artist track                   date.entered week   rank
   <chr>  <chr>                   <date>       <chr> <dbl>
 1 2 Pac  Baby Don't Cry (Keep... 2000-02-26   wk1      87
 2 2 Pac  Baby Don't Cry (Keep... 2000-02-26   wk2      82
 3 2 Pac  Baby Don't Cry (Keep... 2000-02-26   wk3      72
 4 2 Pac  Baby Don't Cry (Keep... 2000-02-26   wk4      77
 5 2 Pac  Baby Don't Cry (Keep... 2000-02-26   wk5      87
 6 2 Pac  Baby Don't Cry (Keep... 2000-02-26   wk6      94
 7 2 Pac  Baby Don't Cry (Keep... 2000-02-26   wk7      99
 8 2 Pac  Baby Don't Cry (Keep... 2000-02-26   wk8      NA
 9 2 Pac  Baby Don't Cry (Keep... 2000-02-26   wk9      NA
10 2 Pac  Baby Don't Cry (Keep... 2000-02-26   wk10     NA
# ℹ 24,082 more rows

Let’s have a look at he result. This new data set contains now 24,092 rows, instead of the initial 217, and only 5 columns, instead of the initial 79. Let’s also notice that when song is in the top 100 for less than 76 weeks, the initial output suggests that all the remaining weeks are filled in with NAs. These NAs don’t really represent unknown observations; they were forced to exist by the structure of the data set, so we can ask pivot_longer() to get rid of them by setting values_drop_na = TRUE, like so:

billboard |> 
    pivot_longer(
        cols = starts_with("wk"),
        names_to = "week",
        values_to = "rank",
        values_drop_na = TRUE
    )

# A tibble: 5,307 × 5
   artist  track                   date.entered week   rank
   <chr>   <chr>                   <date>       <chr> <dbl>
 1 2 Pac   Baby Don't Cry (Keep... 2000-02-26   wk1      87
 2 2 Pac   Baby Don't Cry (Keep... 2000-02-26   wk2      82
 3 2 Pac   Baby Don't Cry (Keep... 2000-02-26   wk3      72
 4 2 Pac   Baby Don't Cry (Keep... 2000-02-26   wk4      77
 5 2 Pac   Baby Don't Cry (Keep... 2000-02-26   wk5      87
 6 2 Pac   Baby Don't Cry (Keep... 2000-02-26   wk6      94
 7 2 Pac   Baby Don't Cry (Keep... 2000-02-26   wk7      99
 8 2Ge+her The Hardest Part Of ... 2000-09-02   wk1      91
 9 2Ge+her The Hardest Part Of ... 2000-09-02   wk2      87
10 2Ge+her The Hardest Part Of ... 2000-09-02   wk3      92
# ℹ 5,297 more rows

Now we can see how the data set is much reduced from the initial 24,092 rows to 5,307 rows. This data now looks much better, but still is not tidy, because the week is not in stored in the right manner. Instead of wk and a number, the values stored should be numbers and the type should be a number not a character. We can do this using mutate() from dplyr and the function readr::parse_number(). parse_number() is a convenience function that will extract the first number it finds in a string, ignoring all the other text. So, using this function we get:

billboard |> 
    pivot_longer(
        cols = starts_with("wk"),
        names_to = "week",
        values_to = "rank",
        values_drop_na = TRUE
    ) |> 
    mutate(week = parse_number(week))

# A tibble: 5,307 × 5
   artist  track                   date.entered  week  rank
   <chr>   <chr>                   <date>       <dbl> <dbl>
 1 2 Pac   Baby Don't Cry (Keep... 2000-02-26       1    87
 2 2 Pac   Baby Don't Cry (Keep... 2000-02-26       2    82
 3 2 Pac   Baby Don't Cry (Keep... 2000-02-26       3    72
 4 2 Pac   Baby Don't Cry (Keep... 2000-02-26       4    77
 5 2 Pac   Baby Don't Cry (Keep... 2000-02-26       5    87
 6 2 Pac   Baby Don't Cry (Keep... 2000-02-26       6    94
 7 2 Pac   Baby Don't Cry (Keep... 2000-02-26       7    99
 8 2Ge+her The Hardest Part Of ... 2000-09-02       1    91
 9 2Ge+her The Hardest Part Of ... 2000-09-02       2    87
10 2Ge+her The Hardest Part Of ... 2000-09-02       3    92
# ℹ 5,297 more rows

And notice now how all the variables have the right type: date.entered is of type date, week and rank are double, artist and track are character.

A more challenging situation occurs when multiple pieces of information are crammed into the column names, and we would like to store these in separate new variables. For example, take the who2 data set — a subset of data from the World Health Organization Global Tubercolosis Report, which is another of the data sets included in tidyr:

who2

# A tibble: 7,240 × 58
   country      year sp_m_014 sp_m_1524 sp_m_2534 sp_m_3544 sp_m_4554 sp_m_5564
   <chr>       <dbl>    <dbl>     <dbl>     <dbl>     <dbl>     <dbl>     <dbl>
 1 Afghanistan  1980       NA        NA        NA        NA        NA        NA
 2 Afghanistan  1981       NA        NA        NA        NA        NA        NA
 3 Afghanistan  1982       NA        NA        NA        NA        NA        NA
 4 Afghanistan  1983       NA        NA        NA        NA        NA        NA
 5 Afghanistan  1984       NA        NA        NA        NA        NA        NA
 6 Afghanistan  1985       NA        NA        NA        NA        NA        NA
 7 Afghanistan  1986       NA        NA        NA        NA        NA        NA
 8 Afghanistan  1987       NA        NA        NA        NA        NA        NA
 9 Afghanistan  1988       NA        NA        NA        NA        NA        NA
10 Afghanistan  1989       NA        NA        NA        NA        NA        NA
# ℹ 7,230 more rows
# ℹ 50 more variables: sp_m_65 <dbl>, sp_f_014 <dbl>, sp_f_1524 <dbl>,
#   sp_f_2534 <dbl>, sp_f_3544 <dbl>, sp_f_4554 <dbl>, sp_f_5564 <dbl>,
#   sp_f_65 <dbl>, sn_m_014 <dbl>, sn_m_1524 <dbl>, sn_m_2534 <dbl>,
#   sn_m_3544 <dbl>, sn_m_4554 <dbl>, sn_m_5564 <dbl>, sn_m_65 <dbl>,
#   sn_f_014 <dbl>, sn_f_1524 <dbl>, sn_f_2534 <dbl>, sn_f_3544 <dbl>,
#   sn_f_4554 <dbl>, sn_f_5564 <dbl>, sn_f_65 <dbl>, ep_m_014 <dbl>, …

This data set records information about tuberculosis diagnoses. There are two columns that are already variables and are easy to interpret: country and year. They are followed by 56 columns like sp_m_014, ep_m_4554, and rel_m_3544 which at first glance may not make much sense. Staring at these columns for long enough, however, we can see a pattern. Each column name is made up of three pieces separated by _. The first piece, sp/rel/ep, describes the method used for the diagnosis, the second piece, m/f is the sex, and the third piece, 014/1524/2534/3544/4554/5564/65 is the age range (014 represents 0-14, for example).

So in this case we have six pieces of information recorded in who2: the country and the year (already columns); the method of diagnosis, the gender category, and the age range category (contained in the other column names); and the count of patients in that category (cell values). To organize these six pieces of information in six separate columns, we use pivot_longer() with a vector of column names for names_to and instructors for splitting the original variable names into pieces for names_sep as well as a column name for values_to:

who2 |> 
    pivot_longer(
        cols = !(country:year),
        names_to = c("diagnosis", "sex", "age"),
        names_sep = "_",
        values_to = "count"
    )

# A tibble: 405,440 × 6
   country      year diagnosis sex   age   count
   <chr>       <dbl> <chr>     <chr> <chr> <dbl>
 1 Afghanistan  1980 sp        m     014      NA
 2 Afghanistan  1980 sp        m     1524     NA
 3 Afghanistan  1980 sp        m     2534     NA
 4 Afghanistan  1980 sp        m     3544     NA
 5 Afghanistan  1980 sp        m     4554     NA
 6 Afghanistan  1980 sp        m     5564     NA
 7 Afghanistan  1980 sp        m     65       NA
 8 Afghanistan  1980 sp        f     014      NA
 9 Afghanistan  1980 sp        f     1524     NA
10 Afghanistan  1980 sp        f     2534     NA
# ℹ 405,430 more rows
…
# A tibble: 2 × 4
  id      bp1   bp2   bp3
  <chr> <dbl> <dbl> <dbl>
1 A       100   120   105
2 B       140   115    NA

pivot_wider() has the opposite interface to pivot_longer(): instead of choosing new column names, we need to provide the existing columns that define the values (values_from) and the column name (names_from).

Let’s move now onto a more complex example. Let’s take the very messy data set cms_patient_experience which contains some lightly cleaned data from “Hospice - Provider Data”, which provides a list of hospice agencies along with some data on quality of patient care. Let’s have a look at it

cms_patient_experience

# A tibble: 500 × 5
   org_pac_id org_nm                           measure_cd measure_title prf_rate
   <chr>      <chr>                            <chr>      <chr>            <dbl>
 1 0446157747 USC CARE MEDICAL GROUP INC       CAHPS_GRP… CAHPS for MI…       63
 2 0446157747 USC CARE MEDICAL GROUP INC       CAHPS_GRP… CAHPS for MI…       87
 3 0446157747 USC CARE MEDICAL GROUP INC       CAHPS_GRP… CAHPS for MI…       86
 4 0446157747 USC CARE MEDICAL GROUP INC       CAHPS_GRP… CAHPS for MI…       57
 5 0446157747 USC CARE MEDICAL GROUP INC       CAHPS_GRP… CAHPS for MI…       85
 6 0446157747 USC CARE MEDICAL GROUP INC       CAHPS_GRP… CAHPS for MI…       24
 7 0446162697 ASSOCIATION OF UNIVERSITY PHYSI… CAHPS_GRP… CAHPS for MI…       59
 8 0446162697 ASSOCIATION OF UNIVERSITY PHYSI… CAHPS_GRP… CAHPS for MI…       85
 9 0446162697 ASSOCIATION OF UNIVERSITY PHYSI… CAHPS_GRP… CAHPS for MI…       83
10 0446162697 ASSOCIATION OF UNIVERSITY PHYSI… CAHPS_GRP… CAHPS for MI…       63
# ℹ 490 more rows
…
There are overall 6 codes with corresponding titles. So we would like to have a new table with columns org_pac_id, org_nm, and six more rows, labelled with the codes CHAPS_GRP_, under which there is the value of prf_rate. So we wish to get the names of the new columns from measure_cd and the values from prf_rate. Let’s try with this code:

cms_patient_experience |> 
    pivot_wider(
        names_from = measure_cd,
        values_from = prf_rate
    )

# A tibble: 500 × 9
   org_pac_id org_nm           measure_title CAHPS_GRP_1 CAHPS_GRP_2 CAHPS_GRP_3
   <chr>      <chr>            <chr>               <dbl>       <dbl>       <dbl>
 1 0446157747 USC CARE MEDICA… CAHPS for MI…          63          NA          NA
 2 0446157747 USC CARE MEDICA… CAHPS for MI…          NA          87          NA
 3 0446157747 USC CARE MEDICA… CAHPS for MI…          NA          NA          86
 4 0446157747 USC CARE MEDICA… CAHPS for MI…          NA          NA          NA
 5 0446157747 USC CARE MEDICA… CAHPS for MI…          NA          NA          NA
 6 0446157747 USC CARE MEDICA… CAHPS for MI…          NA          NA          NA
 7 0446162697 ASSOCIATION OF … CAHPS for MI…          59          NA          NA
 8 0446162697 ASSOCIATION OF … CAHPS for MI…          NA          85          NA
 9 0446162697 ASSOCIATION OF … CAHPS for MI…          NA          NA          83
10 0446162697 ASSOCIATION OF … CAHPS for MI…          NA          NA          NA
# ℹ 490 more rows
# ℹ 3 more variables: CAHPS_GRP_5 <dbl>, CAHPS_GRP_8 <dbl>, CAHPS_GRP_12 <dbl>

This is not quite what we had expected: we still seem to have multiple rows for each organization. Why? This is because the measure_title describes the corresponding codes, and therefore the presence of all NAs apart from the corresponding code shows that the measure_title corresponds to a specific measure_cd. This makes, however, the table unnecessarily complicated. To avoid this, we could simply remove, with select(), the column measure_title. Another option is to specify to pivot_wider() that org_pac_id and org_nm are the two IDs. This is done passing the argument id_cols, like so:

cms_patient_experience |> 
    pivot_wider(
        id_cols = starts_with("org_"),
        names_from = measure_cd,
        values_from = prf_rate
    )

# A tibble: 95 × 8
   org_pac_id org_nm CAHPS_GRP_1 CAHPS_GRP_2 CAHPS_GRP_3 CAHPS_GRP_5 CAHPS_GRP_8
   <chr>      <chr>        <dbl>       <dbl>       <dbl>       <dbl>       <dbl>
 1 0446157747 USC C…          63          87          86          57          85
 2 0446162697 ASSOC…          59          85          83          63          88
 3 0547164295 BEAVE…          49          NA          75          44          73
 4 0749333730 CAPE …          67          84          85          65          82
 5 0840104360 ALLIA…          66          87          87          64          87
 6 0840109864 REX H…          73          87          84          67          91
 7 0840513552 SCL H…          58          83          76          58          78
 8 0941545784 GRITM…          46          86          81          54          NA
 9 1052612785 COMMU…          65          84          80          58          87
10 1254237779 OUR L…          61          NA          NA          65          NA
# ℹ 85 more rows
# ℹ 1 more variable: CAHPS_GRP_12 <dbl>
…
